Sandy
…
Four stages were defined:

preCalm: From 2012-10-24 00:00:14 to 2012-10-28 06:00:00.

prePeak: From 2012-10-28 06:00:00 to 2012-10-29 06:00:00.

peak: From 2012-10-29 06:00:00 to 2012-10-30 06:00:00.

postCalm: From 2012-10-30 06:00:00 to 2012-10-31 23:59:41.

Most common words

A quick view of the most common words in the whole dataset:

## # A tibble: 80,567 x 2
##    word              n
##    <chr>         <int>
##  1 sandy        123160
##  2 hurricane     33103
##  3 frankenstorm  10175
##  4 im             9726
##  5 power          6100
##  6 storm          5512
##  7 nyc            5429
##  8 amp            5122
##  9 safe           4300
## 10 flooded        3914
## # ... with 80,557 more rows

Since sandy is the most common word and is going ot have a big effect in our topic modelling, it was removed from the dataset. After this process the new list of common words looks as follows:

## # A tibble: 80,562 x 2
##    word         n
##    <chr>    <int>
##  1 power     6100
##  2 storm     5512
##  3 nyc       5429
##  4 safe      4300
##  5 flooded   3914
##  6 east      3838
##  7 dont      3666
##  8 flood     3554
##  9 york      3507
## 10 flooding  3499
## # ... with 80,552 more rows
…
