Topic Analysis of tweets belonging to spatial clusters
…
Before doing so, the data was first projected in North America Lambert Conformal Conic.

## Coordinate Reference System:
##   No EPSG code
##   proj4string: "+proj=lcc +lat_1=20 +lat_2=60 +lat_0=40 +lon_0=-96 +x_0=0 +y_0=0 +ellps=GRS80 +towgs84=0,0,0,0,0,0,0 +units=m +no_defs"

Subsetting by Spatial Clustering

In order to identify tweets sent from the afected area, a hierarchical implementation of dbscan was used (hdscan), considering a minimum of 350 tweets per cluster.

Most common words (Within Spatial Clusters)

A quick view of the most common words in the whole dataset:

## # A tibble: 5,203 x 2
##    word             n
##    <chr>        <int>
##  1 boulder       1932
##  2 boulderflood   373
##  3 colorado       262
##  4 cowx           201
##  5 flood          172
##  6 coflood        128
##  7 flooding       123
##  8 creek          111
##  9 rain           110
## 10 amp            104
## #  with 5,193 more rows

Again, since boulder is the most common word and is going to have a big effect in our topic modelling, it was removed from the dataset. After this, the new list of common words looks as follows:

## # A tibble: 5,200 x 2
##    word             n
##    <chr>        <int>
##  1 boulderflood   373
##  2 colorado       262
##  3 cowx           201
##  4 flood          172
##  5 coflood        128
##  6 flooding       123
##  7 creek          111
##  8 rain           110
##  9 denver          94
## 10 county          89
## #  with 5,190 more rows
…
