Colorado
…
1168

immediate_aftermath

967

postflood

740

Most common words

A quick view of the most common words in the whole dataset:

## # A tibble: 7,410 x 2
##    word             n
##    <chr>        <int>
##  1 boulder       2854
##  2 boulderflood   544
##  3 coflood        427
##  4 colorado       411
##  5 cowx           360
##  6 flood          218
##  7 rain           181
##  8 creek          173
##  9 amp            172
## 10 flooding       163
## # … with 7,400 more rows

Since “boulder” is the most common word and is going ot have a big effect in our topic modelling, it was removed from the dataset. After this process the new list of common words looks as follows:

## # A tibble: 7,401 x 2
##    word         n
##    <chr>    <int>
##  1 flood      218
##  2 rain       181
##  3 creek      173
##  4 flooding   163
##  5 denver     137
##  6 day        125
##  7 people     102
##  8 time        94
##  9 park        93
## 10 safe        93
## # … with 7,391 more rows
…
