Colorado
…
From the original dataset containing 5915 tweets, only 5846 were retained.

Removing tweets sent by bots:

Tweets sent by TwitZIP, a bot service to discover local neighborhood news, were removed. After this process 4916 were retained. Other three bot accounts (“TMJ-COB PM Jobs”, “JobsDirectUSA.com”, “Whole Foods”) were detected and tweets were removed. A total of 4158 tweets were retained.

Removing urls, usernames, punctuation and numbers:

All references to usernames, urls and punctuation and numbers were removed from each tweet in order to prepare the dataset for tokenization.

Most common words

A quick view of the most common words in the whole dataset:

## # A tibble: 7,764 x 2
##    word             n
##    <chr>        <int>
##  1 boulder       3242
##  2 boulderflood   544
##  3 colorado       449
##  4 coflood        427
##  5 cowx           402
##  6 flood          269
##  7 flooding       203
##  8 amp            197
##  9 rain           186
## 10 creek          173
## # … with 7,754 more rows

Since “boulder” is the most common word and is going ot have a big effect in our topic modelling, it was removed from the dataset. The following five terms (“boulderflood”, “colorado”, “coflood”, “cowx”, “flood”) were also excluded because they were so common and used neutrally in all four stages. After excluding these six terms, the new list of common words looks as follows:

## # A tibble: 7,758 x 2
##    word         n
##    <chr>    <int>
##  1 flooding   203
##  2 amp        197
##  3 rain       186
##  4 creek      173
##  5 denver     147
##  6 county     130
##  7 day        128
##  8 rt         116
##  9 city       110
## 10 people     106
## # … with 7,748 more rows
…
Now I will repeat the same analysis but considering tweets sent from what should be the “affected area”.

Spatial Clustering

In order to identify tweets sent from the afected area, a hierarchical spatial clustering was applied to the data.

Before doing so, the data was first projected in North America Lambert Conformal Conic.

Then, a hierarchical implementation of dbscan was used (hdscan), considering a minimum of 350 tweets per cluster.

Most common words (Within Spatial Clusters)

A quick view of the most common words in the whole dataset:

## # A tibble: 5,251 x 2
##    word             n
##    <chr>        <int>
##  1 boulder       1998
##  2 boulderflood   373
##  3 colorado       262
##  4 cowx           201
##  5 flood          173
##  6 coflood        129
##  7 amp            126
##  8 flooding       123
##  9 creek          111
## 10 rain           110
## # … with 5,241 more rows

Again, since “boulder” is the most common word and is going to have a big effect in our topic modelling, it was removed from the dataset. The following four terms (“boulderflood”, “colorado”, “cowx”, “flood”) were also excluded because they were so common and used neutrally in all four stages. After excluding these six terms, the new list of common words looks as follows:

## # A tibble: 5,246 x 2
##    word         n
##    <chr>    <int>
##  1 coflood    129
##  2 amp        126
##  3 flooding   123
##  4 creek      111
##  5 rain       110
##  6 denver      94
##  7 county      89
##  8 colo        88
##  9 day         76
## 10 cu          72
## # … with 5,236 more rows
…
