Flood Phase in Counties
…
Flood Phase in Counties

Marcela

8/16/2019

Subsetting by Affected Counties and Flood Phase

Most common words (Within Affected Counties)

A quick view of the most common words in the whole dataset:

## # A tibble: 2,170 x 2
##    word             n
##    <chr>        <int>
##  1 boulder        470
##  2 boulderflood   311
##  3 cowx           161
##  4 flooding       105
##  5 flood          100
##  6 rain            96
##  7 coflood         79
##  8 creek           62
##  9 colorado        54
## 10 rt              54
## # ... with 2,160 more rows

Again, since boulder is the most common word and is going to have a big effect in our topic modelling, it was removed from the dataset. The following four terms (boulderflood, colorado, cowx, flood) were also excluded because they were so common and used neutrally in all four stages. After excluding these six terms, the new list of common words looks as follows:

## # A tibble: 2,168 x 2
##    word             n
##    <chr>        <int>
##  1 boulderflood   311
##  2 cowx           161
##  3 flooding       105
##  4 flood          100
##  5 rain            96
##  6 coflood         79
##  7 creek           62
##  8 colorado        54
##  9 rt              54
## 10 water           52
## # ... with 2,158 more rows
…
